3 Case 3: Nested df問題 | データハンドリングFAQ
…
res
#>  # A tibble: 3 x 2
#>    y_var data              
#>    <chr> <list>            
#>  1 y_1   <tibble [100 × 2]>
#>  2 y_2   <tibble [100 × 2]>
#>  3 y_3   <tibble [100 × 2]>

group_byしてからnestすることで、データを層別化できます。一部を取り出してみると、こんな感じです:

res$data[[2]]
#>  # A tibble: 100 x 2
#>     ds             y
#>     <date>     <dbl>
#>   1 2019-01-01 0.480
#>   2 2019-01-02 0.481
#>   3 2019-01-03 0.480
#>   4 2019-01-04 0.490
#>   5 2019-01-05 0.489
#>   6 2019-01-06 0.481
#>   7 2019-01-07 0.473
#>   8 2019-01-08 0.485
#>   9 2019-01-09 0.466
#>  10 2019-01-10 0.484
#>  # … with 90 more rows
…
